[
  {
    "Id": "a019E000002aTI9QAM",
    "salesforceOrderId": "C-2371",
    "pharmaId": "0019E00000A63wsQAB",
    "distributorId": "E71000006734",
    "repName": "Rep 1",
    "orderType": "Transfer",
    "orderStatus": "Processing",
    "dateOrdered": "2017-06-23T06:29:04Z",
    "requestedDeliveryDate": "2017-06-25T06:29:04Z",
    "priceListId": "E7101",
    "lineItems": [
        {
          "cgdmOrderDetailId": "CI-3459",
          "productId": "EA_3018018",
          "material": "plastic",
          "quantity": 1,
          "uom": "EA",
          "pricePerUnit": 300.94568,
          "usDiscPerUnit": 5.5,
          "grossValue": 300.94568,
          "netValue": 284.39366
        },
        {
          "cgdmOrderDetailId": "CI-3460",
          "productId": "EA_3018018",
          "material": "plastic",
          "quantity": 2,
          "uom": "EA",
          "pricePerUnit": 600.94568,
          "usDiscPerUnit": 5.5,
          "grossValue": 600.94568,
          "netValue": 570.39366
        }
      ]
  },
  {
    "Id": "a019E000002aTPFQA2",
    "salesforceOrderId": "C-1587",
    "pharmaId": "0019E00000A6E9tQAF",
    "distributorId": "E71000020261",
    "repName": "Rep 2",
    "orderType": "Transfer",
    "orderStatus": "Processing",
    "dateOrdered": "2017-06-23T06:29:04Z",
    "requestedDeliveryDate": "2017-06-25T06:29:04Z",
    "priceListId": "E7101",
    "lineItems": [
        {
          "cgdmOrderDetailId": "CI-3476",
          "productId": "EA_8111577",
          "material": "plastic",
          "quantity": 1,
          "uom": "EA",
          "pricePerUnit": 300.94568,
          "usDiscPerUnit": 5.5,
          "grossValue": 300.94568,
          "netValue": 284.39366
        },
        {
          "cgdmOrderDetailId": "CI-3479",
          "productId": "EA_3005704",
          "material": "plastic",
          "quantity": 2,
          "uom": "EA",
          "pricePerUnit": 600.94568,
          "usDiscPerUnit": 5.5,
          "grossValue": 600.94568,
          "netValue": 570.39366
        }
      ]
  }
]