{
    "inputMessageMetadata": {
        "messagePayload": {
            "connectorName": "#_custom_mule_metadata_type_#",
            "typeId": "pharmacytopricelist-csv"
        }
    },
    "outputMessageMetadata": {
        "messagePayload": {
            "connectorName": "#_custom_mule_metadata_type_#",
            "typeId": "pharmacyToPrice-example-id"
        }
    },
    "id": "2999791e-9e72-4746-812a-d4ef6fbddd02",
    "version": "5.2.0.0"
}