{
    "inputMessageMetadata": {
        "messagePayload": {
            "connectorName": "#_custom_mule_metadata_type_#",
            "typeId": "pricelist-csv"
        }
    },
    "outputMessageMetadata": {
        "messagePayload": {
            "connectorName": "#_custom_mule_metadata_type_#",
            "typeId": "productPrice-example-id"
        }
    },
    "id": "d03ff1eb-b474-4288-9911-1e9d10c21bd4",
    "version": "5.2.0.0"
}