{
    "inputMessageMetadata": {
        "messagePayload": {
            "connectorName": "#_custom_mule_metadata_type_#",
            "typeId": "product-price_id"
        }
    },
    "outputMessageMetadata": {},
    "id": "f9cdcedf-4aa1-4d9e-838f-1babbd0c001a",
    "version": "5.2.0.0"
}