[
  {
    "prodId": "E710049485",
    "cnCode": "157346",
    "eanCode": "5038483",
    "prodName": "SCHOLL TRAT.UNAS AHONGO 3,8M(4 (10049485)",
    "brandName": "Durex",
    "sapCode": "E710049485",
    "minOrderQty": "",
    "status": "ACTV",
    "vat": "10",
    "vatValue": "10000"
  },
  {
    "prodId": "E710050133",
    "cnCode": "123456",
    "eanCode": "5038483961094",
    "prodName": "SCHOLL CREMA HIDRATANTE 75ML(6 (10050133)",
    "brandName": "Dettol",
    "sapCode": "E710050133",
    "minOrderQty": "",
    "status": "INAC",
    "vat": "20",
    "vatValue": "20000"
  }
]